{
  "info": {
    "count": 997,
    "currentPage": 1,
    "pages": 50,
    "limit": 20,

    "next": "/vehicle?page=2&limit=20",

    "prev": null,
    "hasNext": true,
    "hasPrev": false,
    "startItem": 1,
    "endItem": 20
  },

  "data": [
    {
      "vehicle_id": 11,
      "vehicle_type_id": 5,
      "model_id": 8,
      "company_id": 8,
      "transport_category_id": 2,
      "company_serial_id": 11,
      "company_service_id": 6,
      "plate": "sxh 005",

      "year_manufactured": null,

      "notes": null,
      "created_at": "2025-07-24T09:06:17.842Z",

      "vehiclePhotos": [
        {
          "vehicle_photo_id": 11,
          "vehicle_id": 11,
          "image_url": "https://res.cloudinary.com/dkj6yzrrk/image/upload/v1736974227/autobusesdecolombia/gnzhup7ehyavf5rzlmuf.webp",
          "photographer_id": 3,
          "country_id": 1,
          "location": "Alto de Matasanos",

          "department": null,

          "description": null,

          "notes": null,

          "tags": null,

          "status": null,

          "likes": null,

          "views": null,

          "favorites": null,

          "shares": null,

          "comments": null,

          "downloads": null,
          "created_at": "2025-07-24T09:08:07.251Z"
        }
      ],

      "model": {
        "model_id": 8,
        "brand_id": 17,
        "chassis_id": 4,
        "bodywork_id": 5,
        "model_name": "Reparbus Inea Aranjanrl Chevrolet Izusu NPR",

        "description": null,

        "year_from": null
      },

      "companySerial": {
        "company_serial_id": 11,
        "company_id": 8,
        "company_serial_code": "06"
      }
    }
  ]
}
